<svg xmlns="http://www.w3.org/2000/svg" width="48" height="48" version="1">
 <rect style="opacity:0.2" width="40" height="26" x="4" y="17" rx="2" ry="2"/>
 <path style="fill:#f4b7ce" d="M 4,34 C 4,35.108 4.892,36 6,36 H 42 C 43.108,36 44,35.108 44,34 V 12 C 44,10.892 43.108,10 42,10 H 24 C 21,10 20,6 17,6 H 6 C 4.892,6 4,6.892 4,8"/>
 <rect style="opacity:0.2" width="40" height="26" x="4" y="15" rx="2" ry="2"/>
 <rect style="fill:#e4e4e4" width="36" height="16" x="6" y="13" rx="2" ry="2"/>
 <rect style="fill:#f4327d" width="40" height="26" x="4" y="16" rx="2" ry="2"/>
 <path style="opacity:0.1;fill:#ffffff" d="M 6,6 C 4.892,6 4,6.892 4,8 V 9 C 4,7.892 4.892,7 6,7 H 17 C 20,7 21,11 24,11 H 42 C 43.108,11 44,11.892 44,13 V 12 C 44,10.892 43.108,10 42,10 H 24 C 21,10 20,6 17,6 Z"/>
 <path style="fill:#ffffff" d="M 19.78,23.002 C 19.54,23.002 19.26,23.072 18.97,23.223 17.94,23.774 16.98,25.557 16.46,27.882 16.02,29.866 15.86,32.561 16.12,33.645 16.35,34.587 16.75,35 17.46,35 18.5,34.98 19.81,33.815 20.65,32.241 21.25,31.369 22.65,30.978 24,31.018 25.34,30.968 26.74,31.369 27.34,32.241 28.18,33.815 29.49,34.98 30.54,35 31.24,35 31.64,34.587 31.87,33.645 32.13,32.561 31.97,29.866 31.53,27.882 31.01,25.557 30.05,23.774 29.02,23.223 28.45,22.912 27.98,22.922 27.56,23.223 27.03,23.604 25.93,24.003 24,24.003 22.06,24.003 20.96,23.604 20.43,23.223 20.22,23.072 20.02,23.002 19.78,23.002 Z M 20.03,26.008 H 21.02 V 27.01 H 22.01 V 28.012 H 21.02 V 29.014 H 20.03 V 28.012 H 19.04 V 27.01 H 20.03 Z M 27.47,26.008 C 27.74,26.008 27.96,26.228 27.96,26.509 27.96,26.789 27.74,27.01 27.47,27.01 27.19,27.01 26.97,26.789 26.97,26.509 26.97,26.228 27.19,26.008 27.47,26.008 Z M 26.48,27.01 C 26.75,27.01 26.97,27.23 26.97,27.511 26.97,27.791 26.75,28.012 26.48,28.012 26.2,28.012 25.98,27.791 25.98,27.511 25.98,27.23 26.2,27.01 26.48,27.01 Z M 28.46,27.01 C 28.73,27.01 28.95,27.23 28.95,27.511 28.95,27.791 28.73,28.012 28.46,28.012 28.18,28.012 27.96,27.791 27.96,27.511 27.96,27.23 28.18,27.01 28.46,27.01 Z M 27.47,28.012 C 27.74,28.012 27.96,28.232 27.96,28.513 27.96,28.793 27.74,29.014 27.47,29.014 27.19,29.014 26.97,28.793 26.97,28.513 26.97,28.232 27.19,28.012 27.47,28.012 Z"/>
</svg>
