<svg xmlns="http://www.w3.org/2000/svg" width="16" height="16" viewBox="0 0 16 16">
 <defs>
  <style id="current-color-scheme" type="text/css">
   .ColorScheme-Text { color:#4ec2e8; } .ColorScheme-Highlight { color:#4285f4; } .ColorScheme-NeutralText { color:#ff9800; } .ColorScheme-PositiveText { color:#4caf50; } .ColorScheme-NegativeText { color:#f44336; }
  </style>
 </defs>
 <path style="fill:currentColor" class="ColorScheme-Text" d="m14.574 1.0059a1.7502 7.8757 44.989 0 0 -6.5135 4.4629 1.7502 7.8757 44.989 0 0 -3.0996 3.5996c0.9415 0.2999 1.6748 1.0326 1.9746 1.9746a1.7502 7.8757 44.989 0 0 3.5975 -3.0996 1.7502 7.8757 44.989 0 0 4.332 -6.8067 1.7502 7.8757 44.989 0 0 -0.291 -0.1308zm-1.574 7.9941c-0.389 1.277-1.361 2.371-1.781 3.25-0.147 0.261-0.219 0.558-0.219 0.875 0 1.039 0.892 1.875 2 1.875s2-0.836 2-1.875c0-0.317-0.103-0.614-0.25-0.875-0.42-0.879-1.361-1.973-1.75-3.25zm-8.5 1.33v0.002c-3.4999 0.938-0.8751 3.154-3.5 4.668 3.4999 0 5.25-1.752 5.25-2.92 0-0.582 0.0594-1.653-1.75-1.75z"/>
</svg>
