<svg xmlns="http://www.w3.org/2000/svg" width="16" height="16" version="1.1">
 <defs>
  <style id="current-color-scheme" type="text/css">
   .ColorScheme-Text { color:#4ec2e8; } .ColorScheme-Highlight { color:#4285f4; } .ColorScheme-NeutralText { color:#ff9800; } .ColorScheme-PositiveText { color:#4caf50; } .ColorScheme-NegativeText { color:#f44336; }
  </style>
 </defs>
 <path style="fill:currentColor" class="ColorScheme-Text" d="M 4,9 V 11 H 15 V 13 H 4 V 15 L 0,12 Z M 6,0 V 2 H 12 C 12,2 13,2 13,3 V 4 H 8 C 5,4 5,7 5,7 5,7 5,10 8,10 H 15 V 3 C 15,0 12,0 12,0 Z M 8,6 H 13 V 8 H 8 C 7,8 7,7 7,7 7,7 7,6 8,6 Z"/>
</svg>
