<svg xmlns="http://www.w3.org/2000/svg" width="16" height="16" version="1.1">
 <defs>
  <style id="current-color-scheme" type="text/css">
   .ColorScheme-Text { color:#4ec2e8; } .ColorScheme-Highlight { color:#4285f4; } .ColorScheme-NeutralText { color:#ff9800; } .ColorScheme-PositiveText { color:#4caf50; } .ColorScheme-NegativeText { color:#f44336; }
  </style>
 </defs>
 <path style="fill:currentColor" class="ColorScheme-Text" d="M 2,1 V 3 H 9 C 11,3 12,4 12,6 V 8 H 14 V 6 C 14,2.5 12.5,1 9,1 Z M 11,9 V 11 H 9 V 13 H 11 V 15 L 15,12 Z M 2,11 V 13 H 4 V 11 Z M 5,11 V 13 H 8 V 11 Z M 2,5 V 6 H 8 C 9,6 9,7 9,7 V 8 H 10 V 7 C 10,7 10,5 8,5 Z"/>
</svg>
