<svg xmlns="http://www.w3.org/2000/svg" width="16" height="16" version="1.1">
 <defs>
  <style id="current-color-scheme" type="text/css">
   .ColorScheme-Text { color:#4ec2e8; } .ColorScheme-Highlight { color:#4285f4; } .ColorScheme-NeutralText { color:#ff9800; } .ColorScheme-PositiveText { color:#4caf50; } .ColorScheme-NegativeText { color:#f44336; }
  </style>
 </defs>
 <path style="fill:currentColor" class="ColorScheme-Text" d="M 1,3 V 5 H 3 V 3 Z M 5,3 V 5 H 15 V 3 Z M 1,7 V 9 H 3 V 7 Z M 5,7 V 9 H 15 V 7 Z M 1,11 V 13 H 3 V 11 Z M 5,11 V 13 H 15 V 11 Z"/>
</svg>
