<svg xmlns="http://www.w3.org/2000/svg" width="22" height="22" version="1.1">
 <defs>
  <style id="current-color-scheme" type="text/css">
   .ColorScheme-Text { color:#0DD9B7; } .ColorScheme-Highlight { color:#4285f4; } .ColorScheme-NeutralText { color:#ff9800; } .ColorScheme-PositiveText { color:#4caf50; } .ColorScheme-NegativeText { color:#f44336; }
  </style>
 </defs>
 <path style="opacity:0.3;fill:currentColor" class="ColorScheme-Text" d="M 3.40625,2 2,3.40625 5.7929688,7.2070312 5,8 H 2 v 6 h 3 l 5,5 v -7.585938 l 2,2 V 15 c 0,0 0.472551,-0.167669 1.039062,-0.546875 l 1.361329,1.361328 C 13.697036,16.326563 12.892734,16.736786 12,17 v 2 c 1.40323,-0.321188 2.696638,-0.951413 3.785156,-1.800781 L 18.59375,20 20,18.59375 17.222656,15.808594 15.839844,14.425781 14.439453,13.025391 12,10.585938 10,8.5859375 7.2070312,5.7929688 Z M 10,3 8.6210938,4.3789062 10,5.7578125 Z m 2,0 v 2 c 2.86838,0.84571 5,3.06286 5,6 0,0.538481 -0.09381,1.04323 -0.228516,1.529297 L 18.3125,14.070312 C 18.749051,13.122442 19,12.088615 19,11 19,7.11429 15.89455,3.89143 12,3 Z m 0,4 v 0.7578125 l 2.984375,2.9843755 C 14.815427,7.9469732 12,7 12,7 Z"/>
</svg>
