<svg xmlns="http://www.w3.org/2000/svg" width="22" height="22" version="1.1">
 <defs>
  <style id="current-color-scheme" type="text/css">
   .ColorScheme-Text { color:#0DD9B7; } .ColorScheme-Highlight { color:#4285f4; } .ColorScheme-NeutralText { color:#ff9800; } .ColorScheme-PositiveText { color:#4caf50; } .ColorScheme-NegativeText { color:#f44336; }
  </style>
 </defs>
 <g transform="translate(3,3)">
  <path style="fill:currentColor" class="ColorScheme-Text" d="M 3,1 C 1.892,1 1,1.892 1,3 V 13 C 1,14.108 1.892,15 3,15 H 13 C 14.108,15 15,14.108 15,13 V 3 C 15,1.892 14.108,1 13,1 Z M 8,4 C 9.1046,4 10,4.8954 10,6 10,7.1046 9.1046,8 8,8 6.8954,8 6,7.1046 6,6 6,4.8954 6.8954,4 8,4 Z M 8,9 C 12,9 12,11.5 12,11.5 V 12 H 4 V 11.5 C 4,11.5 4,9 8,9 Z"/>
 </g>
</svg>
