<svg xmlns="http://www.w3.org/2000/svg" width="22" height="22" version="1.1">
 <defs>
  <style id="current-color-scheme" type="text/css">
   .ColorScheme-Text { color:#0DD9B7; } .ColorScheme-Highlight { color:#4285f4; } .ColorScheme-NeutralText { color:#ff9800; } .ColorScheme-PositiveText { color:#4caf50; } .ColorScheme-NegativeText { color:#f44336; }
  </style>
 </defs>
 <path style="fill:currentColor" class="ColorScheme-Text" d="M 8,4 V 6 H 3 V 10 H 8 V 12 H 3 V 16 H 8 V 18 H 10 V 4 Z M 12,4 V 18 H 14 V 16 H 19 V 12 H 14 V 10 H 19 V 6 H 14 V 4 Z"/>
</svg>
