<svg xmlns="http://www.w3.org/2000/svg" width="22" height="22" viewBox="0 0 22 22">
 <defs>
  <style id="current-color-scheme" type="text/css">
   .ColorScheme-Text { color:#0DD9B7; } .ColorScheme-Highlight { color:#4285f4; } .ColorScheme-NeutralText { color:#ff9800; } .ColorScheme-PositiveText { color:#4caf50; } .ColorScheme-NegativeText { color:#f44336; }
  </style>
 </defs>
 <path style="fill:currentColor" class="ColorScheme-Text" d="m2 1l3 4 3-4h-6zm7 0v2h3v9.996h-8v-6.996h-2v8c0 1 1 1 1 1h10s1 0 1-1v-12c0-1-1-1-1-1h-4z" transform="translate(3 3)"/>
</svg>
