<svg xmlns="http://www.w3.org/2000/svg" width="22" height="22" version="1.1">
 <defs>
  <style id="current-color-scheme" type="text/css">
   .ColorScheme-Text { color:#0DD9B7; } .ColorScheme-Highlight { color:#4285f4; } .ColorScheme-NeutralText { color:#ff9800; } .ColorScheme-PositiveText { color:#4caf50; } .ColorScheme-NegativeText { color:#f44336; }
  </style>
 </defs>
 <g transform="matrix(1,0,0,1,3,3)">
  <path style="fill:currentColor" class="ColorScheme-Text" d="M 8,1 C 7.0694,1 6.2704,1.4954 5.5547,2.1445 4.839,2.7936 4.1768,3.6209 3.4941,4.4277 2.6496,5.5947 0.4955,7.1652 0,7.4297 V 8.5 C 1.272,8.5 1.3661,9.2918 2.3984,10.352 2.3984,10.352 4.839,13.206 5.5547,13.855 6.2704,14.505 7.0695,15 8,15 8.9306,15 9.7296,14.505 10.445,13.855 11.161,13.206 11.823,12.379 12.506,11.572 13.871,9.9587 14.271,8.5 16,8.5 V 7.5 C 15.216,7.5 14.826,6.7109 14.826,6.7109 L 12.506,4.4277 C 12.506,4.4277 11.161,2.7936 10.445,2.1445 9.7296,1.4954 8.9305,1 8,1 Z M 8,2 C 8.5694,2 9.1454,2.3171 9.7734,2.8867 10.401,3.4564 12.125,5.502 12.125,5.502 L 11.959,5.6621 C 11.725,5.9269 11.545,6.2535 11.379,6.6309 11.047,7.3856 10.543,9.2949 10.543,9.2949 L 9.7891,12.246 7.7109,3.7871 C 7.7109,3.7871 7.4523,2.8245 7.3281,2.4922 7.2874,2.3834 7.2406,2.2977 7.1953,2.207 7.4677,2.0762 7.735,2 8,2 Z M 6.4355,2.9922 6.7422,4.0371 7.6094,7.8164 C 7.6094,7.8164 8.233,10.591 8.5352,11.652 8.6863,12.183 8.9844,12.973 8.9844,12.973 8.9844,12.973 9.1367,13.292 9.2422,13.428 L 9.3105,13.494 C 8.8578,13.823 8.4264,14 8,14 7.4306,14 6.8546,13.683 6.2266,13.113 5.5985,12.544 4.2559,10.928 4.2559,10.928 L 4.0586,10.705 4.1816,10.564 C 4.4189,10.254 4.7539,9.4453 4.7539,9.4453 5.0715,8.5854 5.5215,6.4629 5.5215,6.4629 L 6.168,3.6406 C 6.2574,3.3489 6.4355,2.9922 6.4355,2.9922 Z M 4.9961,4.2031 4.543,6.2598 C 4.543,6.2598 4.0942,8.3455 3.8164,9.0977 3.6789,9.4698 3.5283,9.7687 3.3906,9.9512 L 3.2695,9.8145 2.9727,8.6895 2.5801,7.4355 C 2.5214,7.2987 2.4533,7.1743 2.3711,7.0547 3.0579,6.4589 4.9961,4.2031 4.9961,4.2031 Z M 12.793,6.2578 C 13.232,6.7205 13.701,7.1492 14.205,7.5117 14.418,7.7084 14.641,7.8972 14.885,8.0645 13.66,8.7216 12.651,9.8532 11.742,10.928 11.467,11.253 11.203,11.565 10.939,11.871 11.121,11.176 11.305,10.371 11.514,9.5391 11.748,8.6036 12.011,7.6792 12.295,7.0332 12.437,6.7102 12.587,6.4584 12.707,6.3223 12.765,6.2567 12.771,6.2687 12.793,6.2578 Z M 1.584,7.6895 1.8848,8.5488 0.98242,8 Z"/>
 </g>
</svg>
