<svg xmlns="http://www.w3.org/2000/svg" width="20" height="20" version="1.1">
 <defs>
  <style id="current-color-scheme" type="text/css">
   .ColorScheme-Text { color:#0DD9B7; } .ColorScheme-Highlight { color:#4285f4; } .ColorScheme-NeutralText { color:#ff9800; } .ColorScheme-PositiveText { color:#4caf50; } .ColorScheme-NegativeText { color:#f44336; }
  </style>
 </defs>
 <path style="opacity:0.3;fill:currentColor" class="ColorScheme-Text" d="M 1,1 H 19 V 19 H 1 Z"/>
 <path style="fill:currentColor" class="ColorScheme-Text" d="M 1,1 5.5,5.5 10,1 Z M 10,1 14.5,5.5 19,1 Z M 14.5,5.5 10,10 14.5,14.5 19,10 Z M 14.5,14.5 10,19 H 19 Z M 10,19 5.5,14.5 1,19 Z M 5.5,14.5 10,10 5.5,5.5 1,10 Z"/>
</svg>
