<svg xmlns="http://www.w3.org/2000/svg" width="22" height="22" version="1.1">
 <defs>
  <style id="current-color-scheme" type="text/css">
   .ColorScheme-Text { color:#0DD9B7; } .ColorScheme-Highlight { color:#4285f4; } .ColorScheme-NeutralText { color:#ff9800; } .ColorScheme-PositiveText { color:#4caf50; } .ColorScheme-NegativeText { color:#f44336; }
  </style>
 </defs>
 <path style="fill:currentColor" class="ColorScheme-Text" d="M 14,14 V 15 C 14,15.28 14.1,15.54 14.28,15.72 L 15.06,16.5 14.28,17.28 C 14.1,17.46 14,17.72 14,18 V 19 H 15 C 15.28,19 15.54,18.9 15.72,18.72 L 16.5,17.94 17.28,18.72 C 17.46,18.9 17.72,19 18,19 H 19 V 18 C 19,17.72 18.9,17.46 18.72,17.28 L 17.94,16.5 18.72,15.72 C 18.9,15.54 19,15.28 19,15 V 14 H 18 C 17.72,14 17.46,14.1 17.28,14.28 L 16.5,15.06 15.72,14.28 C 15.54,14.1 15.28,14 15,14 Z"/>
 <g style="opacity:0.3" transform="translate(3,3)">
  <path style="fill:currentColor" class="ColorScheme-Text" d="M 5,11 V 16 16 L 8,14 10,15 V 11"/>
  <path style="fill:currentColor" class="ColorScheme-Text" d="M 8 1 A 6 6 0 0 0 2 7 A 6 6 0 0 0 8 13 A 6 6 0 0 0 10 12.656 L 10 10.465 A 4 4 0 0 1 8 11 A 4 4 0 0 1 4 7 A 4 4 0 0 1 8 3 A 4 4 0 0 1 12 7 A 4 4 0 0 1 10.645 10 L 13.195 10 A 6 6 0 0 0 14 7 A 6 6 0 0 0 8 1 z M 8 4 A 3 3 0 0 0 5 7 A 3 3 0 0 0 8 10 A 3 3 0 0 0 11 7 A 3 3 0 0 0 8 4 A 3 3 0 0 0 8 4 z"/>
 </g>
</svg>
