<svg xmlns="http://www.w3.org/2000/svg" width="16" height="16" version="1.1">
 <path style="fill:#f4327d" d="M 4.5,1 C 2.01,1 0,3.02 0,5.5 0,7.99 2.01,10 4.5,10 6.4,10 8.1,8.8 8.74,7 H 12 V 9 H 15 V 7 H 16 V 4 H 8.74 C 8.1,2.21 6.4,1.01 4.5,1 Z M 4.5,4 C 5.33,4 6,4.68 6,5.5 6,6.33 5.33,7 4.5,7 3.67,7 3,6.33 3,5.5 3,4.68 3.67,4 4.5,4 Z"/>
 <path style="opacity:0.3;fill:#f4327d" d="M 9.24,8.13 C 8.74,9.03 8.02,9.77 7.15,10.28 L 8.75,11.87 7.33,13.28 9.45,15.4 10.87,13.98 11.57,14.69 13.7,12.57 Z"/>
</svg>
