<svg xmlns="http://www.w3.org/2000/svg" width="16" height="16" version="1.1">
 <path style="fill:#f4327d" d="M 4.5,0 C 3.669,0 3,0.669 3,1.5 3,2.331 3.669,3 4.5,3 h 6 C 11.331,3 12,2.331 12,1.5 12,0.669 11.331,0 10.5,0 Z M 3.1777344,5 C 2.5248058,5 2,5.5248058 2,6.1777344 V 14.822266 C 2,15.475194 2.5248058,16 3.1777344,16 H 11.822266 C 12.475194,16 13,15.475194 13,14.822266 V 6.1777344 C 13,5.5248058 12.475194,5 11.822266,5 H 9 V 7.75 L 10.5,9 H 9 v 1 2 h 1.5 l -3,2.5 -3,-2.5 H 6 V 10 9 H 4.5 L 6,7.75 V 5 Z"/>
 <rect width="3" height="9" x="6" y="-10" transform="scale(1,-1)" style="opacity:0.3;fill:#f4327d"/>
</svg>
