<svg xmlns="http://www.w3.org/2000/svg" width="24" height="24">
 <defs>
  <style id="current-color-scheme" type="text/css">
   .ColorScheme-Text { color:#f4327d; } .ColorScheme-Highlight { color:#4285f4; } .ColorScheme-NeutralText { color:#ff9800; } .ColorScheme-PositiveText { color:#4caf50; } .ColorScheme-NegativeText { color:#f44336; }
  </style>
 </defs>
 <path style="fill:currentColor" class="ColorScheme-Text" transform="translate(1,1)" d="M 16,11 A 5,5 0 0 1 11,16 5,5 0 0 1 6,11 5,5 0 0 1 11,6 5,5 0 0 1 16,11 Z M 3,3 V 19 H 19 V 3 Z M 18,4 V 18 H 4 Z"/>
</svg>
