<svg xmlns="http://www.w3.org/2000/svg" width="24" height="24" version="1.1">
 <defs>
  <style id="current-color-scheme" type="text/css">
   .ColorScheme-Text { color:#f4327d; } .ColorScheme-Highlight { color:#4285f4; } .ColorScheme-NeutralText { color:#ff9800; } .ColorScheme-PositiveText { color:#4caf50; } .ColorScheme-NegativeText { color:#f44336; }
  </style>
 </defs>
 <g transform="translate(4,4)">
  <path style="fill:currentColor" class="ColorScheme-Text" d="M 10,5 C 8.892,5 8,5.892 8,7 V 9.5 C 8,10.328 8.6716,11 9.5,11 10.328,11 11,10.328 11,9.5 11,8.6716 10.328,8 9.5,8 H 9 V 7 C 9,6.446 9.446,6 10,6 Z M 6,5 C 4.892,5 4,5.892 4,7 V 9.5 C 4,10.328 4.6716,11 5.5,11 6.3284,11 7,10.328 7,9.5 7,8.6716 6.3284,8 5.5,8 H 5 V 7 C 5,6.446 5.446,6 6,6 Z"/>
 </g>
</svg>
