<svg xmlns="http://www.w3.org/2000/svg" width="24" height="24" version="1.1">
 <defs>
  <style id="current-color-scheme" type="text/css">
   .ColorScheme-Text { color:#f4327d; } .ColorScheme-Highlight { color:#4285f4; } .ColorScheme-NeutralText { color:#ff9800; } .ColorScheme-PositiveText { color:#4caf50; } .ColorScheme-NegativeText { color:#f44336; }
  </style>
 </defs>
 <g transform="translate(4,4)">
  <path style="fill:currentColor" class="ColorScheme-Text" d="M 1.7847,2.1055 C 0.84673,2.28 1.0113,3.2676 1.0113,3.2676 L 1.4624,6 H 4.4043 L 5.4766,4.0527 7.7989,6 H 10 L 10.863,4.7754 12.531,6 H 15 L 14.137,0.84964 C 14.013,0.10718 13.457,-0.00192 13.186,2.5219e-5 Z M 1,7 V 8 H 2 V 7 Z M 3,7 V 8 H 4 V 7 Z M 5,7 V 8 H 6 V 7 Z M 7,7 V 8 H 8 V 7 Z M 9,7 V 8 H 10 V 7 Z M 11,7 V 8 H 12 V 7 Z M 13,7 V 8 H 14 V 7 Z M 15,7 V 8 H 16 V 7 Z M 1,9 V 12 H 4 L 8,16 V 9 Z M 10,9 V 12 C 11.07,11.42 11.789,10.3 11.789,9 Z M 14,9 C 14,11.57 12.32,13.76 10,14.5 V 16 C 13.15,15.22 15.5,12.4 15.5,9 Z"/>
 </g>
</svg>
