<svg xmlns="http://www.w3.org/2000/svg" width="24" height="24" viewBox="0 0 24 24">
 <defs>
  <style id="current-color-scheme" type="text/css">
   .ColorScheme-Text { color:#f4327d; } .ColorScheme-Highlight { color:#4285f4; } .ColorScheme-NeutralText { color:#ff9800; } .ColorScheme-PositiveText { color:#4caf50; } .ColorScheme-NegativeText { color:#f44336; }
  </style>
 </defs>
 <path style="fill:currentColor" class="ColorScheme-Text" d="m2 1l0.0156 11.535 2.3223-2.279 0.4394-0.4318 0.2364 0.5798 1.8925 4.596 1.461-0.674-1.9824-4.5467-0.2461-0.5664 0.5937-0.0567 3.2676-0.3105-8-7.8457zm8.834 0l-0.834 0.834 1.666 1.666-1.666 1.666 0.834 0.834 1.666-1.666 1.666 1.666 0.834-0.834-1.666-1.666 1.666-1.666-0.834-0.834-1.666 1.666-1.666-1.666z" transform="translate(4 4)"/>
</svg>
