<svg xmlns="http://www.w3.org/2000/svg" width="16" height="16" version="1.1">
 <path style="fill:#0DD9B7" d="M 5,1 1,3.5 4,5.5 8,3 Z M 8,3 12,5.5 15,3.5 11,1 Z M 12,5.5 8,8 11,10 15,7.5 Z M 8,8 4,5.5 1,7.5 5,10 Z M 8,9.2 5,11.19 4,10.55 V 11.6 L 8,14 12,11.6 V 10.55 L 11,11.19 Z"/>
</svg>
