<svg xmlns="http://www.w3.org/2000/svg" width="16" height="16" version="1.1">
 <defs>
  <style id="current-color-scheme" type="text/css">
   .ColorScheme-Text { color:#f4327d; } .ColorScheme-Highlight { color:#4285f4; } .ColorScheme-NeutralText { color:#ff9800; } .ColorScheme-PositiveText { color:#4caf50; } .ColorScheme-NegativeText { color:#f44336; }
  </style>
 </defs>
 <path style="fill:currentColor" class="ColorScheme-Text" d="M 5,2 1,3 6,4 10,3 Z M 13,2 12,3 11,4 13,6 V 4.7148 C 13.624,5.658 14,6.7786 14,8 14,11.324 11.324,13 8,13 V 14 C 11.878,14 15,11.878 15,8 15,6.0909 14.232,4.3761 13,3.1172 Z M 1,4 V 9 L 5,10 V 5 Z M 10,4 6,5 V 10 L 10,9 Z"/>
</svg>
