<svg xmlns="http://www.w3.org/2000/svg" width="16" height="16" version="1.1">
 <defs>
  <style id="current-color-scheme" type="text/css">
   .ColorScheme-Text { color:#f4327d; } .ColorScheme-Highlight { color:#4285f4; } .ColorScheme-NeutralText { color:#ff9800; } .ColorScheme-PositiveText { color:#4caf50; } .ColorScheme-NegativeText { color:#f44336; }
  </style>
 </defs>
 <path style="fill:currentColor" class="ColorScheme-Text" d="M 0,1 V 15 H 16 V 1 Z M 5,5 A 2,2 0 0 1 7,7 2,2 0 0 1 5,9 2,2 0 0 1 3,7 2,2 0 0 1 5,5 Z M 5,10 C 7.5,10 9,11 9,12.5 V 13 H 1 V 12.5 C 1,11 2.5,10 5,10 Z"/>
</svg>
