<svg xmlns="http://www.w3.org/2000/svg" width="16" height="16" version="1.1">
 <defs>
  <style id="current-color-scheme" type="text/css">
   .ColorScheme-Text { color:#ffffff; } .ColorScheme-Highlight { color:#4285f4; } .ColorScheme-NeutralText { color:#ff9800; } .ColorScheme-PositiveText { color:#4caf50; } .ColorScheme-NegativeText { color:#f44336; }
  </style>
 </defs>
 <path style="fill:currentColor" class="ColorScheme-Text" d="m 13,2 c -1.565727,3.112e-4 -2.867912,1.2046834 -2.990234,2.765625 L 7.9121094,8.0351562 C 7.7759465,8.012075 7.638105,8.0003157 7.5,8 7.0407303,8.0012287 6.5906741,8.1289473 6.1992188,8.3691406 L 4.9921875,7.6875 A 2.5,2.5 0 0 0 5,7.5 2.5,2.5 0 0 0 2.5,5 2.5,2.5 0 0 0 0,7.5 2.5,2.5 0 0 0 2.5,10 2.5,2.5 0 0 0 4.0488281,9.458984 l 1.0019531,0.556641 C 5.0181303,10.175046 5.0011222,10.337274 5,10.5 5,11.880712 6.1192881,13 7.5,13 8.8807119,13 10,11.880712 10,10.5 9.9994597,10.394835 9.9922796,10.289808 9.9785156,10.185547 L 12.576172,7.9667969 C 12.716485,7.9878733 12.858117,7.9989689 13,8 14.656854,8 16,6.6568542 16,5 16,3.3431458 14.656854,2 13,2 Z m 0,1 c 1.104569,0 2,0.8954305 2,2 0,1.1045695 -0.895431,2 -2,2 -1.10457,0 -2,-0.8954305 -2,-2 0,-1.1045695 0.89543,-2 2,-2 z m 0,1 c -0.552285,0 -1,0.4477153 -1,1 0,0.5522847 0.447715,1 1,1 0.552285,0 1,-0.4477153 1,-1 C 14,4.4477153 13.552285,4 13,4 Z M 2.5,6 A 1.5,1.5 0 0 1 3.9433594,7.0957031 L 3.5039062,6.8476562 3.4863281,6.8457031 A 1,1 0 0 0 3,6.7207031 a 1,1 0 0 0 -1,1 1,1 0 0 0 0.5039062,0.8652344 l 0.00781,0.017578 0.53125,0.2949219 A 1.5,1.5 0 0 1 2.5,9 1.5,1.5 0 0 1 1,7.5 1.5,1.5 0 0 1 2.5,6 Z M 7.4609375,9 C 7.4739578,8.9998305 7.4869797,8.9998305 7.5,9 8.3284271,9 9,9.671573 9,10.5 9,11.328427 8.3284271,12 7.5,12 6.6975839,11.999742 6.0374766,11.368035 6.0019531,10.566406 L 6.5,10.853516 c 0.4956,0.286 1.1175312,0.13039 1.3945312,-0.34961 C 8.1715313,10.023906 7.9956,9.407094 7.5,9.121094 L 7.3125,9.013672 C 7.361722,9.006657 7.4112623,9.002094 7.4609375,9 Z"/>
 <path style="fill:currentColor" d="M 0.0723,5.9863 A 8,8 0 0 0 0.0195,6.602 8,8 0 0 1 0.0723,5.9863 Z"/>
 <path style="fill:currentColor" d="M 0,7 A 8,8 0 0 0 0.0391,7.725 8,8 0 0 1 0,7 Z"/>
</svg>
