<svg xmlns="http://www.w3.org/2000/svg" height="16" width="16" version="1.1">
 <defs>
  <style id="current-color-scheme" type="text/css">
   .ColorScheme-Text { color:#0DD9B7; } .ColorScheme-Highlight { color:#4285f4; } .ColorScheme-NeutralText { color:#ff9800; } .ColorScheme-PositiveText { color:#4caf50; } .ColorScheme-NegativeText { color:#f44336; }
  </style>
 </defs>
 <rect style="fill:currentColor" class="ColorScheme-Text" rx="1.317" ry="1.4809999" height="8" width="8" y="8" x="0"/>
 <rect style="fill:currentColor" class="ColorScheme-Text" rx="1.317" ry="1.4809999" height="8" width="8" y="8" x="8"/>
 <rect style="fill:currentColor" class="ColorScheme-Text" rx="1.317" ry="1.4809999" height="8" width="8" y="0" x="4"/>
</svg>
