<svg xmlns="http://www.w3.org/2000/svg" width="16" height="16" version="1.1">
 <defs>
  <style id="current-color-scheme" type="text/css">
   .ColorScheme-Text { color:#0DD9B7; } .ColorScheme-Highlight { color:#4285f4; } .ColorScheme-NeutralText { color:#ff9800; } .ColorScheme-PositiveText { color:#4caf50; } .ColorScheme-NegativeText { color:#f44336; }
  </style>
 </defs>
 <path style="fill:currentColor" class="ColorScheme-Text" d="M 2,14 C 2,14.554 2.446,15 3,15 H 5 V 14 H 11 V 15 H 13 C 13.554,15 14,14.554 14,14 V 2 C 14,1.446 13.554,1 13,1 H 6 L 2,5 Z M 7,3 H 8 V 6 H 7 Z M 9,3 H 10 V 6 H 9 Z M 11,3 H 12 V 6 H 11 Z M 5,4 H 6 V 6 H 5 Z"/>
</svg>
