<svg xmlns="http://www.w3.org/2000/svg" width="16" height="16" version="1.1">
 <path style="fill:#f4327d" d="M 12.778,13.778 C 12.778,13.778 13.278,14.278 13.778,13.778 14.278,13.278 13.778,12.778 13.778,12.778 L 3.2237,2.2237 C 3.2237,2.2237 2.7237,1.7237 2.2237,2.2237 1.7237,2.7237 2.2237,3.2237 2.2237,3.2237 Z"/>
</svg>
