<svg xmlns="http://www.w3.org/2000/svg" width="22" height="22" version="1.1">
 <defs>
  <style id="current-color-scheme" type="text/css">
   .ColorScheme-Text { color:#4ec2e8; } .ColorScheme-Highlight { color:#4285f4; } .ColorScheme-NeutralText { color:#ff9800; } .ColorScheme-PositiveText { color:#4caf50; } .ColorScheme-NegativeText { color:#f44336; }
  </style>
 </defs>
 <g transform="translate(3,3)">
  <path style="fill:currentColor" class="ColorScheme-Text" d="M 4,6 1,14 H 2 L 2.7695,12 H 6.2305 L 7,14 H 8 L 5,6 Z M 4.5,7.5 5.8457,11 H 3.1543 Z M 9,6 V 14 H 12.5 C 15,14 15,11.5 15,11.5 15,11.5 15,9.9176 13.561,9.2422 13.561,9.2422 14,8.775 14,8 14,8 14,6 12,6 Z M 10,7 H 12 C 13,7 13,8 13,8 13,8 13,9 12,9 H 10 Z M 10,10 H 12.5 C 14,10 14,11.5 14,11.5 14,11.5 14,13 12.5,13 H 10 Z M 11.5,2 9,5 H 14 Z"/>
 </g>
</svg>
