<svg xmlns="http://www.w3.org/2000/svg" width="22" height="22" viewBox="0 0 22 22">
 <defs>
  <style id="current-color-scheme" type="text/css">
   .ColorScheme-Text { color:#4ec2e8; } .ColorScheme-Highlight { color:#4285f4; } .ColorScheme-NeutralText { color:#ff9800; } .ColorScheme-PositiveText { color:#4caf50; } .ColorScheme-NegativeText { color:#f44336; }
  </style>
 </defs>
 <path style="fill:currentColor" class="ColorScheme-Text" d="M 12 1 L 12 2 L 12 2.1816406 A 12 12 0 0 0 2.1699219 12 L 2 12 L 1 12 L 1 15 L 4 15 L 4 12 L 3.1914062 12 A 11 11 0 0 1 12 3.1894531 L 12 4 L 15 4 L 15 1 L 12 1 z" transform="translate(3 3)"/>
</svg>
