<svg xmlns="http://www.w3.org/2000/svg" width="22" height="22" viewBox="0 0 22 22">
 <defs>
  <style id="current-color-scheme" type="text/css">
   .ColorScheme-Text { color:#4ec2e8; } .ColorScheme-Highlight { color:#4285f4; } .ColorScheme-NeutralText { color:#ff9800; } .ColorScheme-PositiveText { color:#4caf50; } .ColorScheme-NegativeText { color:#f44336; }
  </style>
 </defs>
 <path style="fill:currentColor" class="ColorScheme-Text" d="M 11 0 L 11 1.7460938 C 10.64941 1.7286838 10.288331 1.7005344 9.9628906 1.7089844 C 8.9135906 1.7362144 7.9924406 1.8936656 7.1816406 2.1660156 C 5.5600406 2.7107256 4.4025938 3.7220844 3.6210938 4.9589844 C 2.5125937 6.7131844 2.1263875 8.8923 1.9921875 11 L 0 11 L 0 16 L 5 16 L 5 13.947266 C 9.2585 13.479336 11.90985 11.143441 13.28125 8.6816406 C 13.99636 7.3980406 14.366494 6.1048 14.496094 5 L 16 5 L 16 0 L 11 0 z M 9.9921875 2.7089844 C 10.304987 2.7008844 10.657 2.7262406 11 2.7441406 L 11 5 L 13.492188 5 C 13.364107 5.94186 13.030883 7.0755594 12.408203 8.1933594 C 11.178703 10.400459 8.8787 12.472216 5 12.916016 L 5 11 L 3.0195312 11 C 3.1533312 8.9977 3.5152869 6.9979875 4.4667969 5.4921875 C 5.1447069 4.4193875 6.0912 3.5885344 7.5 3.1152344 C 8.20441 2.8786144 9.0283875 2.7338144 9.9921875 2.7089844 z" transform="translate(3 3)"/>
</svg>
