<svg xmlns="http://www.w3.org/2000/svg" width="22" height="22" version="1.1">
 <defs>
  <style id="current-color-scheme" type="text/css">
   .ColorScheme-Text { color:#4ec2e8; } .ColorScheme-Highlight { color:#4285f4; } .ColorScheme-NeutralText { color:#ff9800; } .ColorScheme-PositiveText { color:#4caf50; } .ColorScheme-NegativeText { color:#f44336; }
  </style>
 </defs>
 <g transform="translate(3,3)">
  <path style="fill:currentColor" class="ColorScheme-Text" d="M 6,1 1,15 H 3.5 L 4.5625,12 H 6.7227 L 10.828,8.6406 8,1 Z M 7,5 8.75,10 H 5.25 Z M 13,9 V 12 H 11 V 10.5 L 7.5,13 11,15.5 V 14 H 15 V 9 Z"/>
 </g>
</svg>
