<svg xmlns="http://www.w3.org/2000/svg" width="22" height="22" version="1.1">
 <defs>
  <style id="current-color-scheme" type="text/css">
   .ColorScheme-Text { color:#4ec2e8; } .ColorScheme-Highlight { color:#4285f4; } .ColorScheme-NeutralText { color:#ff9800; } .ColorScheme-PositiveText { color:#4caf50; } .ColorScheme-NegativeText { color:#f44336; }
  </style>
 </defs>
 <g transform="translate(3,3)">
  <path style="fill:currentColor;opacity:0.3" class="ColorScheme-Text" d="M 8.8418 0 C 8.7275 0 8.613 0.045144 8.5254 0.13281 L 8.4961 0.16211 C 8.0959 0.56224 7.8721 1.0932 7.8691 1.6562 C 7.8663 2.1787 8.0531 2.672 8.3965 3.0566 L 7.2266 4.2266 L 11.773 8.7734 L 12.943 7.6016 C 13.328 7.9448 13.821 8.1317 14.344 8.1289 C 14.907 8.1259 15.438 7.9041 15.838 7.5039 L 15.867 7.4746 C 15.955 7.3871 15.999 7.2724 16 7.1582 C 16.001 7.044 15.958 6.9285 15.871 6.8418 L 9.1582 0.12891 C 9.0715 0.042162 8.9561 1.8504e-17 8.8418 0 z M 2.9902 5.9902 C 2.683 6.0938 2.3984 6.2598 2.1621 6.4961 L 2.1328 6.5254 C 1.9575 6.7006 1.9554 6.9848 2.1289 7.1582 L 4.7188 9.7461 L 0.39258 14.074 L 0 16 L 1.9258 15.607 L 6.2539 11.281 L 8.8418 13.871 C 8.9285 13.958 9.044 14.001 9.1582 14 C 9.2724 13.999 9.3871 13.955 9.4746 13.867 L 9.5039 13.838 C 9.7402 13.602 9.9062 13.317 10.01 13.01 L 2.9902 5.9902 z"/>
  <path style="fill:currentColor" class="ColorScheme-Text" d="M 0,0 V 1.5 L 14.5,16 H 16 V 14.5 L 1.5,0 Z"/>
 </g>
</svg>
