<svg xmlns="http://www.w3.org/2000/svg" width="16" height="16" version="1.1">
 <path style="fill:#4ec2e8" d="M 3,14 C 3,15 4,15 4,15 H 12 C 13,15 13,14 13,14 V 2 C 13,1 12,1 12,1 H 4 C 3,1 3,2 3,2 Z M 6,12 V 4 L 10,8 Z"/>
</svg>
