<svg xmlns="http://www.w3.org/2000/svg" width="16" height="16" version="1">
 <path style="fill:#4ec2e8" d="M 1.7773438 1 C 0.79245483 1 0 1.7805 0 2.75 L 0 13.25 C 0 14.2195 0.79245483 15 1.7773438 15 L 14.222656 15 C 15.207545 15 16 14.2195 16 13.25 L 16 2.75 C 16 1.7805 15.207545 1 14.222656 1 L 1.7773438 1 z M 1 5.125 L 1.8886719 5.125 L 1.8886719 6 L 1 6 L 1 5.125 z M 14 6 L 14.888672 6 L 14.888672 11 C 14.124228 10.93167 14 10.661016 14 10.166016 L 14 6 z M 7 6.0507812 L 7.8886719 6.0507812 L 7.8886719 7.125 L 8.7773438 7.125 L 8.7773438 8 L 7.8886719 8 L 7.8886719 9.25 C 7.8886719 9.47575 7.9368454 10.125 8.1777344 10.125 L 8.7773438 10.125 L 8.7773438 11 L 7.8886719 11 C 7.0611163 11 7 9.9759531 7 9.4238281 L 7 6.0507812 z M 1 7 L 1.8886719 7 L 1.8886719 11 C 1.1243163 10.934402 1 10.27597 1 9.8007812 L 1 7 z M 2.6660156 7 L 4.8886719 7 C 5.7754274 6.99072 6.2226562 7.6929102 6.2226562 8.1992188 L 6.2226562 11 L 5.3339844 11 L 5.3339844 8.1992188 C 5.3339844 7.9880235 5.0350812 7.8007812 4.7382812 7.8007812 L 3.5546875 7.8007812 L 3.5546875 11 L 2.6660156 11 L 2.6660156 7 z M 11.863281 7 L 11.865234 7 C 12.937234 7.00096 13.554688 7.8439971 13.554688 8.9511719 L 13.554688 9.4003906 L 11.015625 9.4003906 C 11.056514 9.8491804 11.3628 10.175781 11.892578 10.175781 C 12.339689 10.175781 12.562536 10.054636 12.820312 9.8066406 L 13.439453 10.384766 C 13.040342 10.766358 12.623433 10.998047 11.884766 10.998047 C 10.921211 10.998047 10 10.486107 10 8.9941406 C 10 7.7199296 10.803726 7.0008 11.863281 7 z M 11.775391 7.8007812 A 0.88888889 0.79998179 0 0 0 10.886719 8.5996094 L 12.666016 8.5996094 A 0.88888889 0.79998179 0 0 0 11.775391 7.8007812 z"/>
</svg>
