<svg xmlns="http://www.w3.org/2000/svg" width="16" height="16" version="1">
 <path style="fill:#4ec2e8" d="M 5,1 C 3.892,1 3,1.892 3,3 v 10 c 0,1.108 0.892,2 2,2 h 5 V 9 H 8 v 3 H 6 V 9 7 4 h 2 v 3 h 2 V 1 Z m 5,6 v 2 h 2 v 3 h 2 V 4 h -2 v 3 z"/>
</svg>
