<svg xmlns="http://www.w3.org/2000/svg" width="16" height="16" version="1.1">
 <defs>
  <style id="current-color-scheme" type="text/css">
   .ColorScheme-Text { color:#0DD9B7; } .ColorScheme-Highlight { color:#4285f4; } .ColorScheme-NeutralText { color:#ff9800; } .ColorScheme-PositiveText { color:#4caf50; } .ColorScheme-NegativeText { color:#f44336; }
  </style>
 </defs>
 <path style="fill:currentColor" class="ColorScheme-Text" d="M 12.5,9 A 3.5,3.5 0 0 0 9,12.5 3.5,3.5 0 0 0 12.5,16 3.5,3.5 0 0 0 16,12.5 L 13,15 V 13 H 10 V 12 H 13 V 10 L 16,12.5 A 3.5,3.5 0 0 0 12.5,9 Z M 8,9 C 3.568,9 0,12.122 0,16 H 10 C 8.741,15 8,13.574 8,12 8,10.937 8.362,9.8505 9,9 Z M 8,0 A 4,4 0 0 0 4,4 4,4 0 0 0 8,8 4,4 0 0 0 12,4 4,4 0 0 0 8,0 Z"/>
</svg>
