<svg xmlns="http://www.w3.org/2000/svg" width="16" height="16" viewBox="0 0 16 16">
 <defs>
  <style id="current-color-scheme" type="text/css">
   .ColorScheme-Text { color:#0DD9B7; } .ColorScheme-Highlight { color:#4285f4; } .ColorScheme-NeutralText { color:#ff9800; } .ColorScheme-PositiveText { color:#4caf50; } .ColorScheme-NegativeText { color:#f44336; }
  </style>
 </defs>
 <path style="fill:currentColor" class="ColorScheme-Text" d="M 4 1 L 1 5 L 7 5 L 10 1 L 4 1 z M 4 6 L 1 10 L 5 10 L 8 6 L 4 6 z M 12 6 L 9 9 L 9.65625 10.40625 L 11 9 L 11 15 L 13 15 L 13 9 L 14.34375 10.40625 L 15 9 L 12 6 z M 4 11 L 1 15 L 5 15 L 8 11 L 4 11 z"/>
</svg>
