<svg xmlns="http://www.w3.org/2000/svg" width="16" height="16" version="1.1">
 <defs>
  <style id="current-color-scheme" type="text/css">
   .ColorScheme-Text { color:#0DD9B7; } .ColorScheme-Highlight { color:#4285f4; } .ColorScheme-NeutralText { color:#ff9800; } .ColorScheme-PositiveText { color:#4caf50; } .ColorScheme-NegativeText { color:#f44336; }
  </style>
 </defs>
 <path style="fill:currentColor" class="ColorScheme-Text" d="M 0 0 L 0 16 L 16 16 L 16 0 L 0 0 z M 1 1 L 15 1 L 15 15 L 1 15 L 1 1 z"/>
 <path style="fill:currentColor" class="ColorScheme-Text" d="M 2,2 C 8.5,-1.5 7.5,5.5 14,2 17.5,8.5 10.5,7.5 14,14 7.5,17.5 8.5,10.5 2,14 -1.5,7.5 5.5,8.5 2,2 Z"/>
</svg>
