<svg xmlns="http://www.w3.org/2000/svg" width="16" height="16" version="1.1">
 <defs>
  <style id="current-color-scheme" type="text/css">
   .ColorScheme-Text { color:#0DD9B7; } .ColorScheme-Highlight { color:#4285f4; } .ColorScheme-NeutralText { color:#ff9800; } .ColorScheme-PositiveText { color:#4caf50; } .ColorScheme-NegativeText { color:#f44336; }
  </style>
 </defs>
 <path style="fill:currentColor" class="ColorScheme-Text" d="M 8,8 V 9 H 10 V 13 H 11 V 9 H 13 V 8 Z M 0,1 V 3 H 4 V 11 H 6 V 3 H 10 V 1 Z M 12,0 V 1 H 15 V 15 H 1 V 5 H 0 V 16 H 16 V 0 Z"/>
</svg>
