<svg xmlns="http://www.w3.org/2000/svg" width="16" height="16" version="1.1">
 <defs>
  <style id="current-color-scheme" type="text/css">
   .ColorScheme-Text { color:#0DD9B7; } .ColorScheme-Highlight { color:#4285f4; } .ColorScheme-NeutralText { color:#ff9800; } .ColorScheme-PositiveText { color:#4caf50; } .ColorScheme-NegativeText { color:#f44336; }
  </style>
 </defs>
 <path style="fill:currentColor" class="ColorScheme-Text" d="M 8 1 L 0 5 L 2 5 L 2 7 L 3 7 L 3 13 L 2 13 L 2 15 L 3 15 L 10 15 L 10 13 L 9 13 L 9 7 L 11 7 L 11 10 L 13 10 L 13 7 L 14 7 L 14 5 L 16 5 L 8 1 z M 5 7 L 7 7 L 7 13 L 5 13 L 5 7 z M 11 11 L 11 11.707031 L 12.792969 13.5 L 11 15.292969 L 11 16 L 11.707031 16 L 13.5 14.207031 L 15.292969 16 L 16 16 L 16 15.292969 L 14.207031 13.5 L 16 11.707031 L 16 11 L 15.292969 11 L 13.5 12.792969 L 11.707031 11 L 11 11 z"/>
</svg>
