<svg xmlns="http://www.w3.org/2000/svg" width="22" height="22" version="1">
 <rect style="opacity:0.2" width="20" height="12" x="1" y="8.5" rx="1" ry="1"/>
 <path style="fill:#f4b7ce" d="M 1,16 C 1,16.554 1.446,17 2,17 H 20 C 20.554,17 21,16.554 21,16 V 5 C 21,4.446 20.554,4 20,4 H 11 C 9.5,4 9,2 7.5,2 H 2 C 1.446,2 1,2.446 1,3"/>
 <rect style="opacity:0.2" width="20" height="12" x="1" y="7.5" rx="1" ry="1"/>
 <rect style="fill:#e4e4e4" width="16" height="8" x="3" y="6" rx="1" ry="1"/>
 <rect style="fill:#f4327d" width="20" height="12" x="1" y="8" rx="1" ry="1"/>
 <path style="opacity:0.1;fill:#ffffff" d="M 2,2 C 1.446,2 1,2.446 1,3 V 3.5 C 1,2.946 1.446,2.5 2,2.5 H 7.5 C 9,2.5 9.5,4.5 11,4.5 H 20 C 20.554,4.5 21,4.946 21,5.5 V 5 C 21,4.446 20.554,4 20,4 H 11 C 9.5,4 9,2 7.5,2 Z"/>
 <path style="fill:#ffffff" d="m7.8425 10.9231c-0.39015 0-0.77877 0.07815-1.1406 0.23077-0.3617 0.1526-0.6923 0.3778-0.9711 0.6621-0.2789 0.2843-0.503 0.6246-0.6551 0.9988-0.152 0.37415-0.22954 0.77785-0.22954 1.184 0 0.4063 0.077538 0.80972 0.22957 1.1839 0.1521 0.3741 0.3763 0.7133 0.6551 0.9973 0.27883 0.28425 0.60939 0.5095 0.97114 0.66228 0.3535 0.14927 0.73274 0.22606 1.1142 0.22957 0.00901 3.27e-4 0.017477 8.62e-4 0.026443 0.0012 0.92751 0.04393 1.6742-0.3238 2.2212-0.85815 0.3739-0.3651 0.6682-0.797 0.9363-1.2366 0.2681 0.4396 0.5624 0.8715 0.9363 1.2366 0.547 0.53438 1.2937 0.90209 2.2212 0.85815 9e-3 -3.26e-4 0.01743-8e-4 0.02644-0.0012 0.38144-0.0033 0.76068-0.08029 1.1142-0.22957 0.36176-0.15276 0.69231-0.37801 0.97114-0.66228l0.0024-0.0036c0.27815-0.28369 0.50154-0.62092 0.65292-0.99385 0.152-0.37415 0.22954-0.77785 0.22954-1.184s-0.07754-0.80985-0.22954-1.184l-0.0036-6e-3c-0.151-0.3712-0.373-0.709-0.651-0.9921-0.279-0.2843-0.609-0.5095-0.971-0.6621-0.361-0.1526-0.75-0.2308-1.14-0.2308-0.977 0-1.7491 0.4012-2.3189 0.9606-0.3293 0.3225-0.5963 0.6917-0.8388 1.0696-0.2425-0.3779-0.5095-0.7471-0.8388-1.0696-0.5698-0.5594-1.3415-0.9606-2.3187-0.9606zm0.1117 1.2307c0.69452 0 1.1376 0.23415 1.5445 0.62258 0.32254 0.30791 0.60546 0.72714 0.88585 1.1839-0.31996 0.53361-0.62966 1.0216-0.97717 1.3522-0.3831 0.3644-0.7792 0.56528-1.4279 0.53005h-0.025243c-0.24737 0-0.49718-0.04945-0.72474-0.14303-0.2246-0.0924-0.4312-0.23-0.6022-0.3979l-0.00721-6e-3c-0.1725-0.1711-0.3118-0.3773-0.404-0.5982-0.0923-0.2209-0.1395-0.4615-0.1395-0.6997 0-0.23791 0.047226-0.4786 0.13942-0.69951 0.0922-0.2209 0.2316-0.4263 0.4039-0.5974l0.00721-0.0072c0.171-0.168 0.3777-0.3046 0.6022-0.3969 0.2277-0.0935 0.4775-0.1428 0.7249-0.1428zm6.0913 0c0.24738 0 0.49718 0.04946 0.72474 0.14303 0.22452 0.09231 0.43116 0.22872 0.60217 0.39663l0.0072 0.0072c0.17234 0.17106 0.31166 0.37642 0.40385 0.59735 0.09231 0.22031 0.13969 0.46092 0.13969 0.69908 0 0.23792-0.04722 0.47859-0.13942 0.69951-0.09219 0.22092-0.2315 0.4275-0.40385 0.59856l-0.0072 6e-3c-0.171 0.16791-0.37764 0.30552-0.60217 0.39783-0.22758 0.09357-0.47738 0.14303-0.72474 0.14303h-0.02524c-0.649 0.0352-1.0452-0.1656-1.4283-0.53-0.3477-0.3305-0.6572-0.8185-0.9772-1.352 0.2806-0.4573 0.5631-0.8763 0.8855-1.184 0.4074-0.389 0.85-0.6228 1.545-0.6228zm-0.584 0.61538v0.61538h-0.61538v1.2308h0.61538v0.61538h1.2308v-0.61538h0.61538v-1.2308h-0.61538v-0.61538zm-6.7692 0.61538v1.2308h2.4615v-1.2308z"/>
</svg>
