<svg xmlns="http://www.w3.org/2000/svg" width="24" height="24" version="1">
 <rect style="opacity:0.2" width="20" height="12" x="2" y="9.5" rx="1" ry="1"/>
 <path style="fill:#f4b7ce" d="M 2,17 C 2,17.554 2.446,18 3,18 H 21 C 21.554,18 22,17.554 22,17 V 6 C 22,5.446 21.554,5 21,5 H 12 C 10.5,5 10,3 8.5,3 H 3 C 2.446,3 2,3.446 2,4"/>
 <rect style="opacity:0.2" width="20" height="12" x="2" y="8.5" rx="1" ry="1"/>
 <rect style="fill:#e4e4e4" width="16" height="8" x="4" y="7" rx="1" ry="1"/>
 <rect style="fill:#f4327d" width="20" height="12" x="2" y="9" rx="1" ry="1"/>
 <path style="opacity:0.1;fill:#ffffff" d="M 3,3 C 2.446,3 2,3.446 2,4 V 4.5 C 2,3.946 2.446,3.5 3,3.5 H 8.5 C 10,3.5 10.5,5.5 12,5.5 H 21 C 21.554,5.5 22,5.946 22,6.5 V 6 C 22,5.446 21.554,5 21,5 H 12 C 10.5,5 10,3 8.5,3 Z"/>
 <path style="fill:#ffffff" d="M 13.989,11 C 13.492,11.018 12.891,11.287 12.535,11.653 12.216,11.978 11.937,12.496 12.012,12.993 12.566,13.031 13.13,12.746 13.475,12.38 13.82,12.013 14.052,11.508 13.989,11 Z M 13.539,13.003 C 12.916,12.941 12.625,13.366 12.309,13.366 11.993,13.366 11.505,13.013 10.989,13.023 10.31,13.033 9.6819,13.412 9.3323,14.013 8.6268,15.223 9.1525,17.016 9.8401,17.997 10.176,18.477 10.587,19 11.104,19 11.621,19 11.802,18.673 12.414,18.673 13.027,18.673 12.893,19 13.434,19 13.975,19 14.225,18.497 14.559,18.015 14.945,17.458 15,17 15,17 15,17 14.008,16.488 13.998,15.292 13.988,14.291 15,13.786 15,13.786 14.53,13.107 13.8,13.014 13.539,13.003 Z"/>
</svg>
