<svg xmlns="http://www.w3.org/2000/svg" width="24" height="24" version="1.1">
 <defs>
  <style id="current-color-scheme" type="text/css">
   .ColorScheme-Text { color:#0DD9B7; } .ColorScheme-Highlight { color:#4285f4; } .ColorScheme-NeutralText { color:#ff9800; } .ColorScheme-PositiveText { color:#4caf50; } .ColorScheme-NegativeText { color:#f44336; }
  </style>
 </defs>
 <g transform="translate(4,4)">
  <path style="fill:currentColor" class="ColorScheme-Text" d="M 8 1 A 7 7 0 0 0 1 8 A 7 7 0 0 0 8 15 A 7 7 0 0 0 15 8 A 7 7 0 0 0 8 1 z M 8 3.75 A 1.25 1.25 0 0 1 9.25 5 A 1.25 1.25 0 0 1 8 6.25 A 1.25 1.25 0 0 1 6.75 5 A 1.25 1.25 0 0 1 8 3.75 z M 7 7 L 9 7 L 9 12 L 7 12 L 7 7 z"/>
 </g>
</svg>
