<svg xmlns="http://www.w3.org/2000/svg" width="24" height="24" version="1.1">
 <defs>
  <style id="current-color-scheme" type="text/css">
   .ColorScheme-Text { color:#0DD9B7; } .ColorScheme-Highlight { color:#4285f4; } .ColorScheme-NeutralText { color:#ff9800; } .ColorScheme-PositiveText { color:#4caf50; } .ColorScheme-NegativeText { color:#f44336; }
  </style>
 </defs>
 <g transform="translate(4,4)">
  <path style="fill:currentColor" class="ColorScheme-Text" d="M 1,1 V 15 H 7 V 7 H 15 V 1 Z M 3,3 H 5 V 5 H 3 Z M 7,3 H 9 V 5 H 7 Z M 11,3 H 13 V 5 H 11 Z M 3,7 H 5 V 9 H 3 Z M 11,9 V 11 H 9 V 13 H 11 V 15 H 13 V 13 H 15 V 11 H 13 V 9 Z M 3,11 H 5 V 13 H 3 Z"/>
 </g>
</svg>
