<svg xmlns="http://www.w3.org/2000/svg" width="24" height="24" version="1.1">
 <defs>
  <style id="current-color-scheme" type="text/css">
   .ColorScheme-Text { color:#0DD9B7; } .ColorScheme-Highlight { color:#4285f4; } .ColorScheme-NeutralText { color:#ff9800; } .ColorScheme-PositiveText { color:#4caf50; } .ColorScheme-NegativeText { color:#f44336; }
  </style>
 </defs>
 <g transform="translate(4,4)">
  <path style="fill:currentColor" class="ColorScheme-Text" d="M 1 1 L 1 3 L 3 3 L 3 1 L 1 1 z M 13 1 L 13 3 L 15 3 L 15 1 L 13 1 z M 4 2 L 4 4 L 6 4 L 6 2 L 4 2 z M 4 4 L 2 4 L 2 6 L 4 6 L 4 4 z M 10 2 L 10 4 L 12 4 L 12 2 L 10 2 z M 12 4 L 12 6 L 14 6 L 14 4 L 12 4 z M 7 3 L 7 5 L 9 5 L 9 3 L 7 3 z M 9 5 L 9 7 L 11 7 L 11 5 L 9 5 z M 11 7 L 11 9 L 13 9 L 13 7 L 11 7 z M 11 9 L 9 9 L 9 11 L 11 11 L 11 9 z M 9 11 L 7 11 L 7 13 L 9 13 L 9 11 z M 7 11 L 7 9 L 5 9 L 5 11 L 7 11 z M 5 9 L 5 7 L 3 7 L 3 9 L 5 9 z M 5 7 L 7 7 L 7 5 L 5 5 L 5 7 z M 7 7 L 7 9 L 9 9 L 9 7 L 7 7 z M 2 10 L 2 12 L 4 12 L 4 10 L 2 10 z M 4 12 L 4 14 L 6 14 L 6 12 L 4 12 z M 12 10 L 12 12 L 14 12 L 14 10 L 12 10 z M 12 12 L 10 12 L 10 14 L 12 14 L 12 12 z M 1 13 L 1 15 L 3 15 L 3 13 L 1 13 z M 13 13 L 13 15 L 15 15 L 15 13 L 13 13 z"/>
 </g>
</svg>
