<svg xmlns="http://www.w3.org/2000/svg" width="24" height="24" version="1.1">
 <defs>
  <style id="current-color-scheme" type="text/css">
   .ColorScheme-Text { color:#0DD9B7; } .ColorScheme-Highlight { color:#4285f4; } .ColorScheme-NeutralText { color:#ff9800; } .ColorScheme-PositiveText { color:#4caf50; } .ColorScheme-NegativeText { color:#f44336; }
  </style>
 </defs>
 <path style="fill:currentColor" class="ColorScheme-Text" d="m 5,6 v 11 2 H 7 18 V 17 H 7 V 16 H 7.0078125 8 10 V 15.9922 L 10.0078,16 l 2,-2 h 1.591797 l 2,2 H 18 v -1 h -1.986328 l -2,-2 H 14 13.007813 12.599609 11.59375 l -2,2 H 8 7.0078125 7 V 13 H 8.8730469 8.875 l 2,-2 H 9.4609375 l -1,1 H 7 V 6 Z m 3,0 v 1 h 1 v 3 h 1 V 6 H 9 Z m 4.5,0 C 11.669,6 11,6.669 11,7.5 v 1 C 11,9.331 11.669,10 12.5,10 13.331,10 14,9.331 14,8.5 v -1 C 14,6.669 13.331,6 12.5,6 Z m 4,0 C 15.669,6 15,6.669 15,7.5 v 1 C 15,9.331 15.669,10 16.5,10 17.331,10 18,9.331 18,8.5 v -1 C 18,6.669 17.331,6 16.5,6 Z m -4,1 C 12.777,7 13,7.223 13,7.5 v 1 C 13,8.777 12.777,9 12.5,9 12.223,9 12,8.777 12,8.5 v -1 C 12,7.223 12.223,7 12.5,7 Z m 4,0 C 16.777,7 17,7.223 17,7.5 v 1 C 17,8.777 16.777,9 16.5,9 16.223,9 16,8.777 16,8.5 v -1 C 16,7.223 16.223,7 16.5,7 Z"/>
</svg>
