<svg xmlns="http://www.w3.org/2000/svg" width="24" height="24" version="1.1">
 <defs>
  <style id="current-color-scheme" type="text/css">
   .ColorScheme-Text { color:#0DD9B7; } .ColorScheme-Highlight { color:#4285f4; } .ColorScheme-NeutralText { color:#ff9800; } .ColorScheme-PositiveText { color:#4caf50; } .ColorScheme-NegativeText { color:#f44336; }
  </style>
 </defs>
 <g transform="translate(4,4)">
  <path style="fill:currentColor" class="ColorScheme-Text" d="M 12,10 V 10.586 L 11.586,10.172 10.172,11.586 10.586,12 H 10 V 14 H 10.586 L 10.172,14.414 11.586,15.828 12,15.414 V 16 H 14 V 15.414 L 14.414,15.828 15.828,14.414 15.414,14 H 16 V 12 H 15.414 L 15.828,11.586 14.414,10.172 14,10.586 V 10 Z M 13,12 A 1,1 0 0 1 14,13 1,1 0 0 1 13,14 1,1 0 0 1 12,13 1,1 0 0 1 13,12 Z M 0,1 V 15 H 9 V 10 9 H 15 16 V 1 Z M 9,3 H 15 V 4 H 9 Z M 3.5,4 C 3.5,4 5,4 5,5.5 V 7 H 6 V 10 H 1 V 7 H 2 V 5.5 C 2,4 3.5,4 3.5,4 Z M 3.5,5 C 3.5,5 3,5 3,5.5 V 7 H 4 V 5.5 C 4,5 3.5,5 3.5,5 Z M 9,6 H 15 V 7 H 9 Z"/>
 </g>
</svg>
