<svg xmlns="http://www.w3.org/2000/svg" width="16" height="16" version="1.1">
 <path style="fill:#f4327d" d="M 7 0 L 7 2.0859375 A 6 6 0 0 1 8 2 A 6 6 0 0 1 9 2.0898438 L 9 0 L 7 0 z M 3.0507812 1.6367188 L 1.6367188 3.0507812 L 3.1132812 4.5273438 A 6 6 0 0 1 4.5292969 3.1152344 L 3.0507812 1.6367188 z M 12.949219 1.6367188 L 11.472656 3.1132812 A 6 6 0 0 1 12.884766 4.5292969 L 14.363281 3.0507812 L 12.949219 1.6367188 z M 8 3 A 5 5 0 0 0 3 8 A 5 5 0 0 0 5.2949219 12.205078 C 5.713317 11.305716 6.5416242 10.637052 7.5234375 10.322266 C 8.1696152 9.0017204 9.4227843 8 11 8 C 11.732994 8 12.393594 8.2229024 12.958984 8.5878906 A 5 5 0 0 0 13 8 A 5 5 0 0 0 8 3 z M 0 7 L 0 9 L 2.0859375 9 A 6 6 0 0 1 2 8 A 6 6 0 0 1 2.0898438 7 L 0 7 z M 13.914062 7 A 6 6 0 0 1 14 8 A 6 6 0 0 1 13.910156 9 L 16 9 L 16 7 L 13.914062 7 z M 11 9 C 9.69 9 8.5994531 9.8592969 8.1894531 11.029297 C 6.9594531 11.189297 6 12.23 6 13.5 C 6 14.88 7.12 16 8.5 16 L 13.5 16 C 14.88 16 16 14.88 16 13.5 C 16 12.23 15.040547 11.189297 13.810547 11.029297 C 13.410547 9.8592969 12.31 9 11 9 z M 3.1152344 11.470703 L 1.6367188 12.949219 L 3.0507812 14.363281 L 4.5273438 12.886719 A 6 6 0 0 1 3.1152344 11.470703 z"/>
</svg>
