<svg xmlns="http://www.w3.org/2000/svg" width="16" height="16" version="1.1">
 <path style="fill:#f4327d" d="M 6.9999991,-6.4999999e-8 V 2.085937 a 6,6 0 0 1 1,-0.085937 6,6 0 0 1 1,0.08984 V -6.4999999e-8 Z M 3.0507801,1.6367189 1.6367181,3.050781 3.1132801,4.527344 a 6,6 0 0 1 1.416016,-1.41211 z m 9.8984379,0 -1.476563,1.4765621 a 6,6 0 0 1 1.41211,1.416016 L 14.36328,3.050781 Z M 7.9999991,3 a 5,5 0 0 0 -5,5 5,5 0 0 0 5,5 A 5,5 0 0 0 12.999999,8 5,5 0 0 0 7.9999991,3 Z m -8,4 v 2 h 2.085937 a 6,6 0 0 1 -0.08594,-1 6,6 0 0 1 0.08984,-1 z M 13.914061,7 a 6,6 0 0 1 0.08594,1 6,6 0 0 1 -0.08984,1 h 2.08984 V 7 Z m -10.7988279,4.470703 -1.478515,1.478516 1.414062,1.414062 1.476563,-1.476562 a 6,6 0 0 1 -1.41211,-1.416016 z m 9.7714849,0.002 a 6,6 0 0 1 -1.416016,1.41211 l 1.478516,1.478515 1.414062,-1.414062 z M 6.9999991,13.910156 V 16 h 2 v -2.085938 a 6,6 0 0 1 -1,0.08594 6,6 0 0 1 -1,-0.08984 z"/>
</svg>
