<svg xmlns="http://www.w3.org/2000/svg" width="16" height="16" version="1.1">
 <path style="fill:#4ec2e8" d="M 14,9 11,14 8,9 H 10 V 6 C 10,4.321 8.68,3 7,3 5.32,3 4,4.321 4,6 V 11 H 2 V 6 C 2,3.247 4.25,1 7,1 9.75,1 12,3.247 12,6 V 9 Z"/>
</svg>
