<svg xmlns="http://www.w3.org/2000/svg" width="16" height="16" version="1.1">
 <path style="fill:#4ec2e8" d="M 13,5 A 5,5 0 0 1 8,10 5,5 0 0 1 3,5 5,5 0 0 1 8,0 5,5 0 0 1 13,5 Z"/>
 <path style="fill:#4ec2e8" d="M 5,12 8,16 11,12 Z"/>
</svg>
