<svg xmlns="http://www.w3.org/2000/svg" width="16" height="16" version="1.1">
 <path style="fill:#4ec2e8" d="M 8,1 C 7,1 7,2 7,2 V 6 C 7,6 5,6 5,7 V 9 H 12 V 7 C 12,6 10,6 10,6 V 2 C 10,2 10,1 9,1 Z M 5,10 C 5,12.761 4.1046,15 3,15 H 10 C 11.105,15 12,12.761 12,10 Z"/>
</svg>
