<svg xmlns="http://www.w3.org/2000/svg" width="24" height="24" version="1.1">
 <defs>
  <style id="current-color-scheme" type="text/css">
   .ColorScheme-Text { color:#4ec2e8; } .ColorScheme-Highlight { color:#4285f4; } .ColorScheme-NeutralText { color:#ff9800; } .ColorScheme-PositiveText { color:#4caf50; } .ColorScheme-NegativeText { color:#f44336; }
  </style>
 </defs>
 <g transform="translate(4,4)">
  <path style="fill:currentColor" class="ColorScheme-Text" d="M 2,2 V 4 H 4 V 2 Z M 7,2 V 4 H 9 V 2 Z M 12,2 V 4 H 14 V 2 Z M 4,5 V 7 H 6 V 5 Z M 10,5 V 7 H 12 V 5 Z M 2,8 V 14 C 2,15 3,15 3,15 H 13 C 13,15 14,15 14,14 V 8 H 12 V 13 H 4 V 8 Z M 10,8 7,11 6,10 5,11 7,13 11,9 Z"/>
 </g>
</svg>
