<svg xmlns="http://www.w3.org/2000/svg" width="24" height="24" version="1.1">
 <defs>
  <style id="current-color-scheme" type="text/css">
   .ColorScheme-Text { color:#4ec2e8; } .ColorScheme-Highlight { color:#4285f4; } .ColorScheme-NeutralText { color:#ff9800; } .ColorScheme-PositiveText { color:#4caf50; } .ColorScheme-NegativeText { color:#f44336; }
  </style>
 </defs>
 <g transform="translate(4,4)">
  <path style="fill:currentColor" class="ColorScheme-Text" d="M 8,8 H 9 V 9 H 8 Z M 11,3 C 10,3 10,4 10,4 V 8 C 10,9 11,9 11,9 H 12 C 13,9 13,8 13,8 V 4 C 13,3 12,3 12,3 Z M 11,4 H 12 V 8 H 11 Z M 5,3 V 4 H 6 V 9 H 7 V 3 Z M 1,1 V 11 H 6 L 10,15 V 11 H 11 V 15 L 15,11 V 1 Z M 2,2 H 14 V 10 H 2 Z"/>
 </g>
</svg>
