<svg xmlns="http://www.w3.org/2000/svg" width="24" height="24" viewBox="0 0 24 24">
 <defs>
  <style id="current-color-scheme" type="text/css">
   .ColorScheme-Text { color:#4ec2e8; } .ColorScheme-Highlight { color:#4285f4; } .ColorScheme-NeutralText { color:#ff9800; } .ColorScheme-PositiveText { color:#4caf50; } .ColorScheme-NegativeText { color:#f44336; }
  </style>
 </defs>
 <path style="fill:currentColor" class="ColorScheme-Text" d="M 0 3 L 0 13 L 4 13 L 4 3 L 0 3 z M 12 3 L 12 13 L 16 13 L 16 3 L 12 3 z M 5 5 L 5 11 L 11 11 L 11 5 L 5 5 z" transform="translate(4 4)"/>
</svg>
