<svg xmlns="http://www.w3.org/2000/svg" width="24" height="24" version="1.1">
 <defs>
  <style id="current-color-scheme" type="text/css">
   .ColorScheme-Text { color:#4ec2e8; } .ColorScheme-Highlight { color:#4285f4; } .ColorScheme-NeutralText { color:#ff9800; } .ColorScheme-PositiveText { color:#4caf50; } .ColorScheme-NegativeText { color:#f44336; }
  </style>
 </defs>
 <g transform="translate(4,4)">
  <path style="fill:currentColor" class="ColorScheme-Text" d="M 6,2 V 3 H 10 V 2 Z M 4,4 V 6 H 12 V 4 Z M 2,7 V 9 H 14 V 7 Z M 4,10 V 12 H 12 V 10 Z M 6,13 V 14 H 10 V 13 Z"/>
 </g>
</svg>
