<?xml version="1.0" encoding="UTF-8" standalone="no"?>
<svg
   xmlns:dc="http://purl.org/dc/elements/1.1/"
   xmlns:cc="http://creativecommons.org/ns#"
   xmlns:rdf="http://www.w3.org/1999/02/22-rdf-syntax-ns#"
   xmlns:svg="http://www.w3.org/2000/svg"
   xmlns="http://www.w3.org/2000/svg"
   xmlns:sodipodi="http://sodipodi.sourceforge.net/DTD/sodipodi-0.dtd"
   xmlns:inkscape="http://www.inkscape.org/namespaces/inkscape"
   width="24"
   height="24"
   version="1.1"
   id="svg7"
   sodipodi:docname="view-financial-account-add@24x24.svg"
   inkscape:version="0.92.5 (2060ec1f9f, 2020-04-08)">
  <metadata
     id="metadata11">
    <rdf:RDF>
      <cc:Work
         rdf:about="">
        <dc:format>image/svg+xml</dc:format>
        <dc:type
           rdf:resource="http://purl.org/dc/dcmitype/StillImage" />
      </cc:Work>
    </rdf:RDF>
  </metadata>
  <sodipodi:namedview
     pagecolor="#ffffff"
     bordercolor="#666666"
     borderopacity="1"
     objecttolerance="10"
     gridtolerance="10"
     guidetolerance="10"
     inkscape:pageopacity="0"
     inkscape:pageshadow="2"
     inkscape:window-width="622"
     inkscape:window-height="436"
     id="namedview9"
     showgrid="false"
     inkscape:zoom="14.75"
     inkscape:cx="8"
     inkscape:cy="8"
     inkscape:window-x="0"
     inkscape:window-y="0"
     inkscape:window-maximized="0"
     inkscape:current-layer="svg7" />
  <defs
     id="defs3">
    <style
       id="current-color-scheme"
       type="text/css">
   .ColorScheme-Text { color:#4ec2e8; } .ColorScheme-Highlight { color:#4285f4; } .ColorScheme-NeutralText { color:#ff9800; } .ColorScheme-PositiveText { color:#4caf50; } .ColorScheme-NegativeText { color:#f44336; }
  </style>
  </defs>
  <g transform="translate(4,4)"
     id="g14">
    <path
       id="path5"
       d="M 3 0 C 2.446 0 2 0.446 2 1 L 2 7 L 13 7 C 14.090703 7 15 7.9092972 15 9 L 15 10 L 16 10 L 16 1 C 16 0.446 15.554 0 15 0 L 3 0 z M 4 2 L 11 2 L 11 3 L 4 3 L 4 2 z M 12 2 L 14 2 L 14 3 L 12 3 L 12 2 z M 4 4 L 8 4 L 8 5 L 4 5 L 4 4 z M 1 8 C 0.446 8 0 8.446 0 9 L 0 15 C 0 15.554 0.446 16 1 16 L 10 16 L 10 13 L 10 11 L 10 10 L 14 10 L 14 9 C 14 8.446 13.554 8 13 8 L 1 8 z M 13 11 L 13 13 L 11 13 L 11 14 L 13 14 L 13 16 L 14 16 L 14 14 L 16 14 L 16 13 L 14 13 L 14 11 L 13 11 z M 1 14 L 2 14 L 2 15 L 1 15 L 1 14 z M 3 14 L 4 14 L 4 15 L 3 15 L 3 14 z M 5 14 L 6 14 L 6 15 L 5 15 L 5 14 z M 7 14 L 8 14 L 8 15 L 7 15 L 7 14 z"
       class="ColorScheme-Text"
       style="fill:currentColor" />
  </g>
</svg>
