<svg xmlns="http://www.w3.org/2000/svg" width="22" height="22" version="1.1">
 <defs>
  <style id="current-color-scheme" type="text/css">
   .ColorScheme-Text { color:#f4327d; } .ColorScheme-Highlight { color:#4285f4; } .ColorScheme-NeutralText { color:#ff9800; } .ColorScheme-PositiveText { color:#4caf50; } .ColorScheme-NegativeText { color:#f44336; }
  </style>
 </defs>
 <g transform="translate(3,3)">
  <path style="fill:currentColor" class="ColorScheme-Text" d="M 4,1 V 3 H 12 V 1 Z M 2,4 C 2,4 1,4 1,5 V 9 C 1,10 2,10 2,10 H 3 V 8 H 7.7324 C 8.4209,7.2393 9.4045,6.75 10.5,6.75 12.375,6.75 13.935,8.1633 14.197,9.9707 14.488,9.9143 15,9.72 15,9 V 5 C 15,4 14,4 14,4 Z M 4,9 V 14 H 9.1953 C 7.7763,13.464 6.75,12.096 6.75,10.5 6.75,9.9672 6.8678,9.461 7.0723,9 Z"/>
  <path style="fill:currentColor" class="ColorScheme-Text" d="M 11.5,12.5 13.778,14.778 C 13.778,14.778 14.278,15.278 14.778,14.778 15.278,14.278 14.778,13.778 14.778,13.778 L 12.5,11.5 Z M 7.75,10.5 C 7.75,12 9,13.25 10.5,13.25 12,13.25 13.25,12 13.25,10.5 13.25,9 12,7.75 10.5,7.75 9,7.75 7.75,9 7.75,10.5 Z M 10.5,8.75 C 11.5,8.75 12.25,9.5 12.25,10.5 12.25,11.5 11.5,12.25 10.5,12.25 9.5,12.25 8.75,11.5 8.75,10.5 8.75,9.5 9.5,8.75 10.5,8.75 Z"/>
 </g>
</svg>
