<?xml version="1.0" encoding="UTF-8" standalone="no"?>
<svg
   xmlns:dc="http://purl.org/dc/elements/1.1/"
   xmlns:cc="http://creativecommons.org/ns#"
   xmlns:rdf="http://www.w3.org/1999/02/22-rdf-syntax-ns#"
   xmlns:svg="http://www.w3.org/2000/svg"
   xmlns="http://www.w3.org/2000/svg"
   xmlns:sodipodi="http://sodipodi.sourceforge.net/DTD/sodipodi-0.dtd"
   xmlns:inkscape="http://www.inkscape.org/namespaces/inkscape"
   width="22"
   height="22"
   version="1.1"
   id="svg7"
   sodipodi:docname="view-currency-list@22x22.svg"
   inkscape:version="0.92.5 (2060ec1f9f, 2020-04-08)">
  <metadata
     id="metadata11">
    <rdf:RDF>
      <cc:Work
         rdf:about="">
        <dc:format>image/svg+xml</dc:format>
        <dc:type
           rdf:resource="http://purl.org/dc/dcmitype/StillImage" />
      </cc:Work>
    </rdf:RDF>
  </metadata>
  <sodipodi:namedview
     pagecolor="#ffffff"
     bordercolor="#666666"
     borderopacity="1"
     objecttolerance="10"
     gridtolerance="10"
     guidetolerance="10"
     inkscape:pageopacity="0"
     inkscape:pageshadow="2"
     inkscape:window-width="622"
     inkscape:window-height="436"
     id="namedview9"
     showgrid="false"
     inkscape:zoom="14.75"
     inkscape:cx="8"
     inkscape:cy="8"
     inkscape:window-x="0"
     inkscape:window-y="0"
     inkscape:window-maximized="0"
     inkscape:current-layer="svg7" />
  <defs
     id="defs3">
    <style
       id="current-color-scheme"
       type="text/css">
   .ColorScheme-Text { color:#f4327d; } .ColorScheme-Highlight { color:#4285f4; } .ColorScheme-NeutralText { color:#ff9800; } .ColorScheme-PositiveText { color:#4caf50; } .ColorScheme-NegativeText { color:#f44336; }
  </style>
  </defs>
  <g transform="translate(3,3)"
     id="g14">
    <path
       id="path5"
       d="M 9.8574219 1.4863281 L 8.1425781 2.5136719 L 11 7.2773438 L 11 8 L 9 8 L 9 9 L 11 9 L 11 10 L 9 10 L 9 11 L 11 11 L 11 15 L 13 15 L 13 11 L 15 11 L 15 10 L 13 10 L 13 9 L 15 9 L 15 8 L 13 8 L 13 7.2773438 L 15.857422 2.5136719 L 14.142578 1.4863281 L 12 5.0566406 L 9.8574219 1.4863281 z M 5.5 2 A 4.5 6.5 0 0 0 1.1269531 7 L 0 7 L 0 8 L 1.015625 8 A 4.5 6.5 0 0 0 1 8.5 A 4.5 6.5 0 0 0 1.0175781 9 L 0 9 L 0 10 L 1.1269531 10 A 4.5 6.5 0 0 0 5.5 15 A 4.5 6.5 0 0 0 9.2910156 12 L 7.0683594 12 A 2.5 4.5 0 0 1 5.5 12.996094 A 2.5 4.5 0 0 1 3.1464844 10 L 6 10 L 6 9 L 3.0195312 9 A 2.5 4.5 0 0 1 3 8.4960938 A 2.5 4.5 0 0 1 3.015625 8 L 8 8 L 8 7 L 3.1445312 7 A 2.5 4.5 0 0 1 5.5 3.9960938 A 2.5 4.5 0 0 1 7.0722656 5 L 9.2871094 5 A 4.5 6.5 0 0 0 5.5 2 z"
       class="ColorScheme-Text"
       style="fill:currentColor" />
  </g>
</svg>
