<svg xmlns="http://www.w3.org/2000/svg" width="16" height="16" version="1.1">
 <path style="fill:#0DD9B7" d="M 8 0 A 8 8 0 0 0 0 8 A 8 8 0 0 0 8 16 A 8 8 0 0 0 16 8 A 8 8 0 0 0 8 0 z M 10.304688 2.4628906 A 6 6 0 0 1 13.1875 5 L 11.503906 5 C 11.222633 4.1461563 10.817854 3.2993746 10.304688 2.4628906 z M 5.6933594 2.4667969 C 5.1812973 3.3020617 4.7769473 4.1474312 4.4960938 5 L 2.8105469 5 A 6 6 0 0 1 5.6933594 2.4667969 z M 8 2.609375 C 8.5964021 3.420226 9.0528286 4.2159929 9.3769531 5 L 6.6230469 5 C 6.9471713 4.2159929 7.403598 3.420226 8 2.609375 z M 2.0898438 7 L 4.0566406 7 C 4.0198242 7.3377506 3.9990328 7.6764232 4 8.015625 C 4.0009374 8.3442824 4.0184324 8.6731038 4.0546875 9 L 2.0859375 9 A 6 6 0 0 1 2 8 A 6 6 0 0 1 2.0898438 7 z M 6.0761719 7 L 9.9238281 7 C 9.970018 7.3380323 10.000956 7.6745387 10 8.0097656 C 9.9990623 8.3386173 9.9661846 8.6686041 9.9199219 9 L 6.0800781 9 C 6.0338154 8.6686041 6.0009377 8.3386173 6 8.0097656 C 5.9990441 7.6745387 6.029982 7.3380323 6.0761719 7 z M 11.943359 7 L 13.914062 7 A 6 6 0 0 1 14 8 A 6 6 0 0 1 13.910156 9 L 11.945312 9 C 11.981567 8.6731038 11.999063 8.3442824 12 8.015625 C 12.000967 7.6764232 11.980176 7.3377506 11.943359 7 z M 2.8125 11 L 4.5 11 C 4.7829315 11.856334 5.1906009 12.702417 5.703125 13.539062 A 6 6 0 0 1 2.8125 11 z M 6.6308594 11 L 9.3691406 11 C 9.0447003 11.783493 8.5906746 12.577094 8 13.384766 C 7.4093254 12.577094 6.9552997 11.783493 6.6308594 11 z M 11.5 11 L 13.189453 11 A 6 6 0 0 1 10.298828 13.535156 C 10.810255 12.699728 11.217491 11.855055 11.5 11 z"/>
</svg>
