<svg xmlns="http://www.w3.org/2000/svg" width="16" height="16" version="1.1">
 <path style="fill:#0DD9B7" d="M 12.279,3.3705 6,10.561 3.75,8.3105 C 3.2882,7.8608 2.69,7.9405 2.31,8.3105 1.94,8.6905 1.8543,9.2947 2.31,9.7505 L 6.09,13.5 13.779,4.6905 C 14.538,3.8206 13.215,2.2986 12.279,3.3705 Z"/>
</svg>
