<svg xmlns="http://www.w3.org/2000/svg" width="16" height="16" version="1.1">
 <path style="fill:#0DD9B7" d="M 5,8.5 8.5,12 7.5,13 H 5.5 L 4,11.5 V 9.5 Z M 1,13 H 3 C 5,13 5,15 5,15 H 1 Z M 12,2.5 5.75,7.75 9.25,11.25 14.5,5 C 15.622,3.878 14.5,3 14.5,3 L 14,2.5 C 14,2.5 13.134,1.3659 12,2.5 Z"/>
</svg>
